[
    {
        "title": "title unlimited access",
        "text": "text unlimited access",
        "icon": "icon-diamond2"
    },
    {
        "title": "title certificates",
        "text": "text certificates",
        "icon": "icon-license2"
    },
    {
        "title": "title business course",
        "text": "text business course",
        "icon": "icon-briefcase"
    },
    {
        "title": "title teacher questions",
        "text": "text teacher questions",
        "icon": "icon-pen"
    },
    {
        "title": "title offline access",
        "text": "text offline access",
        "icon": "icon-smartphone"
    },
    {
        "title": "title guarantee",
        "text": "text guarantee",
        "icon": "icon-calendar-full"
    }
]
